<?xml version="1.0" encoding="utf-8"?>
<!-- Generator: Adobe Illustrator 16.0.0, SVG Export Plug-In . SVG Version: 6.00 Build 0)  -->
<!DOCTYPE svg PUBLIC "-//W3C//DTD SVG 1.1 Tiny//EN" "http://www.w3.org/Graphics/SVG/1.1/DTD/svg11-tiny.dtd">
<svg version="1.1" baseProfile="tiny" id="Layer_1" xmlns="http://www.w3.org/2000/svg" xmlns:xlink="http://www.w3.org/1999/xlink"
	 x="0px" y="0px" width="350px" height="350px" viewBox="0 0 350 350" overflow="scroll" xml:space="preserve">
<g>
	<g>
		<path fill="#B3B3B3" d="M200.003,154.074c0.209,0.209,0.482,0.313,0.756,0.313s0.547-0.104,0.756-0.313l43.32-43.32
			c0.418-0.418,0.418-1.094,0-1.512c-0.418-0.416-1.094-0.416-1.512,0l-43.32,43.32C199.587,152.98,199.587,153.656,200.003,154.074
			z"/>
		<path fill="#B3B3B3" d="M190.274,145.795c0.113,0.039,0.23,0.057,0.344,0.057c0.445,0,0.861-0.279,1.012-0.725l19.777-57.984
			c0.189-0.559-0.109-1.166-0.668-1.357c-0.557-0.189-1.166,0.109-1.355,0.668l-19.777,57.984
			C189.417,144.996,189.716,145.604,190.274,145.795z"/>
		<path fill="#B3B3B3" d="M268.292,143.338c-0.191-0.559-0.801-0.857-1.355-0.666l-57.986,19.777
			c-0.559,0.189-0.857,0.797-0.666,1.355c0.152,0.445,0.566,0.725,1.012,0.725c0.113,0,0.229-0.018,0.344-0.057l57.986-19.777
			C268.185,144.504,268.482,143.896,268.292,143.338z"/>
	</g>
	<g>
		<polygon fill="#175079" points="261.341,71.826 274.798,83.51 288.253,95.189 261.341,95.189 234.429,95.189 247.886,83.51 		"/>
		<path fill="#F26328" d="M282.468,90.074l5.813,5.186v34.166c0,1.938-1.568,3.506-3.504,3.506h-46.871
			c-1.936,0-3.504-1.568-3.504-3.506V95.26l5.813-4.703"/>
		<path fill="#175079" d="M282.468,90.074l5.813,5.186v34.166c0,1.938-1.568,3.506-3.504,3.506h-46.871
			c-1.936,0-3.504-1.568-3.504-3.506V95.26l5.813-4.703"/>
		<polyline fill="#FFFFFF" points="240.536,116.729 240.536,79.051 282.147,79.051 282.147,116.729 		"/>
		<g>
			<rect x="246.239" y="87.197" fill="#C1E1DE" width="18.068" height="1.35"/>
			<rect x="246.239" y="92.32" fill="#C1E1DE" width="30.203" height="1.35"/>
			<rect x="246.239" y="97.445" fill="#C1E1DE" width="30.203" height="1.348"/>
			<rect x="246.239" y="102.568" fill="#C1E1DE" width="30.203" height="1.35"/>
			<rect x="246.239" y="107.693" fill="#C1E1DE" width="30.203" height="1.348"/>
		</g>
		<path fill="#1895A4" d="M254.956,112.547l-20.316,18.117c0.498,1.322,1.77,2.268,3.266,2.268h46.871
			c1.498,0,2.768-0.945,3.268-2.268l-20.316-18.117H254.956z"/>
		<g>
			<path fill="#19B0BF" d="M267.829,112.639l20.215,18.025c-0.068,0.178-0.148,0.344-0.242,0.504l0.008,0.008
				c0.297-0.516,0.471-1.111,0.471-1.75V95.264L267.829,112.639z"/>
			<path fill="#19B0BF" d="M234.64,130.664l20.215-18.025l-20.453-17.375v34.162c0,0.639,0.174,1.234,0.471,1.75l0.006-0.008
				C234.786,131.008,234.706,130.842,234.64,130.664z"/>
		</g>
	</g>
	<g>
		<path fill="#175079" d="M173.452,83.996c9.73,0,17.615,6.215,17.615,13.881c0,5.543-4.133,10.311-10.085,12.539
			c0.118,0.24,0.224,0.486,0.358,0.719c1.166,1.953,2.869,3.432,4.898,4.428c-4.496,0.32-8.656-1.025-11.402-3.857
			c-0.457,0.027-0.918,0.057-1.385,0.057c-9.725,0-17.607-6.217-17.607-13.885C155.845,90.211,163.728,83.996,173.452,83.996z"/>
		<path fill="#103754" d="M161.331,107.941c10.889-0.24,19.625-7.271,19.625-15.914c0-2.682-0.844-5.205-2.328-7.422
			c-1.637-0.395-3.373-0.609-5.176-0.609c-9.725,0-17.607,6.215-17.607,13.881C155.845,101.84,157.954,105.412,161.331,107.941z"/>
		<path fill="#F05661" d="M158.421,72.6c-11.16,0-20.209,7.131-20.209,15.928c0,6.357,4.74,11.826,11.568,14.381
			c-0.135,0.277-0.255,0.559-0.41,0.826c-1.336,2.24-3.291,3.938-5.617,5.08c5.156,0.367,9.93-1.176,13.08-4.426
			c0.523,0.031,1.051,0.064,1.588,0.064c11.156,0,20.201-7.131,20.201-15.926C178.622,79.73,169.577,72.6,158.421,72.6z"/>
		<path fill="#E51F4D" d="M138.214,88.578c0.025,6.336,4.758,11.783,11.566,14.33c-0.135,0.277-0.255,0.559-0.41,0.826
			c-1.336,2.24-3.291,3.938-5.617,5.08c5.156,0.367,9.93-1.176,13.08-4.426c0.523,0.031,1.051,0.064,1.588,0.064
			c11.135,0,20.162-7.104,20.199-15.875H138.214z"/>
		<g>
			<g>
				<path fill="#D1EBFA" d="M152.618,88.816c0,1.566-1.268,2.838-2.838,2.838c-1.563,0-2.834-1.271-2.834-2.838
					c0-1.564,1.271-2.836,2.834-2.836C151.351,85.98,152.618,87.252,152.618,88.816z"/>
				<path fill="#D1EBFA" d="M161.316,88.816c0,1.566-1.269,2.838-2.839,2.838c-1.563,0-2.832-1.271-2.832-2.838
					c0-1.564,1.27-2.836,2.832-2.836C160.048,85.98,161.316,87.252,161.316,88.816z"/>
				<path fill="#D1EBFA" d="M170.013,88.816c0,1.566-1.268,2.838-2.836,2.838c-1.564,0-2.836-1.271-2.836-2.838
					c0-1.564,1.271-2.836,2.836-2.836C168.745,85.98,170.013,87.252,170.013,88.816z"/>
			</g>
			<g>
				<path fill="#FFFFFF" d="M146.972,88.578h5.623c-0.123-1.451-1.328-2.598-2.814-2.598
					C148.298,85.98,147.095,87.127,146.972,88.578z"/>
				<path fill="#FFFFFF" d="M155.669,88.578h5.625c-0.125-1.451-1.328-2.598-2.816-2.598
					C156.995,85.98,155.794,87.127,155.669,88.578z"/>
				<path fill="#FFFFFF" d="M164.366,88.578h5.623c-0.123-1.451-1.326-2.598-2.813-2.598
					C165.694,85.98,164.489,87.127,164.366,88.578z"/>
			</g>
		</g>
	</g>
	<g>
		<g>
			<path fill="#B3B3B3" d="M84.101,163.855c-0.381,0-0.735-0.244-0.86-0.625L71.39,127.012L59.537,163.23
				c-0.155,0.475-0.668,0.74-1.142,0.578c-0.476-0.154-0.735-0.666-0.579-1.141l12.713-38.85c0.121-0.373,0.469-0.623,0.86-0.623
				s0.739,0.25,0.86,0.623l12.711,38.85c0.156,0.475-0.104,0.986-0.579,1.141C84.289,163.84,84.193,163.855,84.101,163.855z"/>
		</g>
		<g>
			<g>
				<path fill="#B3B3B3" d="M62.058,163.854h-6.066c-0.5,0-0.905-0.404-0.905-0.904s0.405-0.906,0.905-0.906h6.066
					c0.5,0,0.905,0.406,0.905,0.906S62.558,163.854,62.058,163.854z"/>
			</g>
			<g>
				<path fill="#B3B3B3" d="M86.784,163.854H80.72c-0.5,0-0.905-0.404-0.905-0.904s0.405-0.906,0.905-0.906h6.064
					c0.5,0,0.905,0.406,0.905,0.906S87.284,163.854,86.784,163.854z"/>
			</g>
		</g>
		<g>
			<path fill="#B3B3B3" d="M79.509,151.871H63.255c-0.5,0-0.905-0.406-0.905-0.906s0.405-0.904,0.905-0.904h16.254
				c0.5,0,0.905,0.404,0.905,0.904S80.009,151.871,79.509,151.871z"/>
		</g>
		<g>
			<path fill="#B3B3B3" d="M88.368,143.508c-1.595,0-2.906-0.48-3.899-1.432c-1.019-0.967-1.535-2.162-1.535-3.547
				c0-1.371,0.465-2.461,1.384-3.24c0.784-0.686,1.657-1.168,2.583-1.424c0.734-0.197,2.01-0.492,4.27-0.99
				c2.049-0.457,3.527-0.861,4.517-1.234c0.279-0.105,0.591-0.066,0.835,0.102c0.245,0.17,0.391,0.447,0.391,0.746v1.068
				c0,2.766-0.362,4.738-1.107,6.029c-0.639,1.156-1.661,2.119-3.032,2.85C91.439,143.146,89.957,143.508,88.368,143.508z
				 M95.101,133.744c-0.939,0.283-2.11,0.58-3.539,0.898c-2.204,0.486-3.493,0.785-4.185,0.971c-0.656,0.182-1.29,0.535-1.878,1.047
				c-0.511,0.436-0.755,1.043-0.755,1.869c0,0.895,0.31,1.604,0.975,2.236c0.656,0.627,1.521,0.932,2.649,0.932
				c1.288,0,2.482-0.289,3.552-0.861c1.058-0.563,1.834-1.283,2.309-2.141C94.795,137.713,95.086,136.053,95.101,133.744z"/>
		</g>
		<g>
			<path fill="#B3B3B3" d="M96.181,143.338c-0.5,0-0.905-0.404-0.905-0.904v-11.82c0-2.584-1.966-4.686-4.382-4.686h-1.246
				c-1.757,0-3.34,1.117-4.031,2.846c-0.187,0.465-0.714,0.689-1.178,0.504s-0.689-0.713-0.504-1.178
				c0.969-2.418,3.211-3.982,5.713-3.982h1.246c3.415,0,6.192,2.914,6.192,6.496v11.82
				C97.086,142.934,96.681,143.338,96.181,143.338z"/>
		</g>
	</g>
	<g>
		<g>
			<path fill="#103754" d="M177.333,264.428c2.629,1.836,3.264,5.459,1.424,8.084l-8.879,12.684
				c-1.838,2.627-5.459,3.264-8.086,1.426l-32.498-22.758c-2.627-1.838-3.266-5.459-1.426-8.084l8.879-12.684
				c1.84-2.627,5.461-3.262,8.09-1.426L177.333,264.428z"/>
			<g>
				<path fill="#175079" d="M184.173,157.314c-6.046,0-10.951,4.908-10.943,10.951c-0.006,6.045,4.889,10.943,10.936,10.943
					c0.003,0,0.006,0,0.008,0c0.004,0,0.006,0,0.009,0c6.038,0,10.944-4.91,10.94-10.949c-0.008-6.039-4.912-10.936-10.947-10.945
					C184.174,157.314,184.174,157.314,184.173,157.314L184.173,157.314z"/>
			</g>
			<path fill="#F05661" d="M112.708,195.807l32.197,32.199l42.971-42.971l-49.76-49.76c1.084,16.115-2.613,32.203-11.605,45.66
				C122.585,186.809,117.911,191.766,112.708,195.807z"/>
			<path fill="#175079" d="M113.604,194.693l-23.607,23.605c-9.072,9.07-9.068,23.777,0,32.846l11.289,11.291
				c9.068,9.068,23.775,9.068,32.844-0.002l23.607-23.605L113.604,194.693z"/>
			<path fill="#19B0BF" d="M221.87,214.695c-2.055,2.053-5.627,1.813-7.98-0.539l-75.613-75.615
				c-2.354-2.352-2.594-5.926-0.539-7.979l3.719-3.721c2.055-2.055,5.629-1.813,7.98,0.541l75.615,75.611
				c2.349,2.352,2.592,5.928,0.539,7.98L221.87,214.695z"/>
			<path fill="#E51F4D" d="M217.04,214.199l-39.641-39.641l-42.971,42.973l22.082,22.078c4.037-5.203,8.996-9.877,14.869-13.803
				C184.837,216.813,200.925,213.119,217.04,214.199z"/>
			<path fill="#103754" d="M135.435,216.523l-40.029,40.029l5.881,5.883c9.068,9.068,23.775,9.068,32.844-0.002l23.607-23.605
				L135.435,216.523z"/>
			<path fill="#1895A4" d="M225.052,202.994l-38.053-38.051l-11.16,11.16l38.051,38.053c2.354,2.352,5.926,2.592,7.98,0.539
				l3.721-3.721C227.644,208.922,227.4,205.346,225.052,202.994z"/>
			<path fill="#175079" d="M143.05,260.436c-1.703-1.17-4.033-0.74-5.209,0.965l0,0c-1.17,1.703-0.738,4.035,0.965,5.209
				l24.345,16.744c1.704,1.172,4.038,0.74,5.212-0.965l0,0c1.17-1.701,0.738-4.035-0.965-5.209L143.05,260.436z"/>
		</g>
	</g>
	<g>
		<g>
			<path fill="#F05661" d="M273.269,202.227c-11.125,1.461-22.25,1.461-33.373,0c-1.893-8.598-1.893-17.191,0-25.789
				c11.123-1.463,22.248-1.463,33.373,0C275.159,185.035,275.159,193.629,273.269,202.227z"/>
			<path fill="#E51F4D" d="M239.896,202.227c11.123,1.461,22.248,1.461,33.373,0c0.949-4.314,1.422-8.629,1.418-12.943h-36.209
				C238.474,193.598,238.946,197.912,239.896,202.227z"/>
			<path fill="#FFFFFF" d="M263.401,188.59c0.652,0.408,0.652,1.076,0,1.488l-9.654,6.064c-0.652,0.41-1.186,0.074-1.186-0.744
				V183.27c0-0.82,0.533-1.156,1.186-0.746L263.401,188.59z"/>
			<path fill="#C1E1DE" d="M252.562,195.398c0,0.818,0.533,1.154,1.186,0.744l9.654-6.064c0.348-0.219,0.504-0.508,0.482-0.795
				h-11.322V195.398z"/>
		</g>
	</g>
	<g>
		<g>
			<g>
				<path fill="#175079" d="M263.456,246.172h-3.607l-3.949-5.031H243.37l-3.951,5.031h-13.037c-1.529,0-2.771,1.242-2.771,2.773
					v24.25c0,1.529,1.244,2.773,2.771,2.773h37.074c1.529,0,2.771-1.244,2.771-2.773v-24.252
					C266.228,247.414,264.985,246.172,263.456,246.172z"/>
				<circle fill="#103754" cx="249.636" cy="261.068" r="9.92"/>
				<circle fill="#175079" cx="249.635" cy="261.068" r="8.583"/>
				<circle fill="#C1E1DE" cx="249.633" cy="261.068" r="6.374"/>
				<path fill="#FFFFFF" d="M249.956,258.469c0,1.25-1.014,2.26-2.26,2.26c-1.248,0-2.26-1.012-2.26-2.258
					c0-1.248,1.01-2.26,2.26-2.26C248.942,256.211,249.956,257.225,249.956,258.469z"/>
				<circle fill="#FFFFFF" cx="245.387" cy="261.982" r="1.265"/>
				<path fill="#103754" d="M227.386,248.064c-1.061,0-1.985-0.6-2.451-1.482c-0.793,0.49-1.324,1.363-1.324,2.363v24.25
					c0,1.529,1.244,2.773,2.771,2.773h7.764v-27.902L227.386,248.064z"/>
				<path fill="#103754" d="M234.147,246.123c-0.002,0.445-0.361,0.803-0.805,0.803h-5.42c-0.443,0-0.805-0.357-0.805-0.803v-0.4
					c0-0.443,0.361-0.803,0.805-0.803h5.42c0.443,0,0.803,0.359,0.805,0.803V246.123z"/>
				<path fill="#FFFFFF" d="M255.558,244.602c0,0.457-0.371,0.83-0.83,0.83h-10.385c-0.457,0-0.83-0.373-0.83-0.83v-1.664
					c0-0.457,0.373-0.828,0.83-0.828h10.385c0.459,0,0.83,0.369,0.83,0.828V244.602z"/>
			</g>
			<polygon fill="#FFFFFF" points="239.958,227.268 238.972,233.266 232.978,234.252 238.972,235.236 239.96,241.232 
				240.942,235.236 246.935,234.252 240.942,233.268 			"/>
			<polygon fill="#FFFFFF" points="254.903,221.621 254.257,225.545 250.335,226.191 254.257,226.836 254.903,230.762 
				255.55,226.838 259.474,226.191 255.548,225.545 			"/>
		</g>
	</g>
	<path fill="#B3B3B3" d="M299.659,235.973h-1.662c-0.39,0-0.807-0.297-0.928-0.666l-0.311-0.752c-0.172-0.344-0.09-0.85,0.182-1.123
		l1.178-1.176c0.273-0.273,0.273-0.721,0-0.99l-1.818-1.824c-0.271-0.27-0.719-0.27-0.992,0l-1.18,1.178
		c-0.273,0.273-0.777,0.355-1.123,0.182l-0.75-0.311c-0.365-0.121-0.662-0.535-0.662-0.924v-1.662c0-0.385-0.32-0.703-0.705-0.703
		h-2.574c-0.387,0-0.699,0.318-0.699,0.703v1.662c0,0.389-0.301,0.803-0.668,0.924l-0.752,0.311
		c-0.346,0.174-0.852,0.092-1.123-0.182l-1.178-1.178c-0.27-0.27-0.719-0.27-0.99,0l-1.82,1.824c-0.273,0.27-0.273,0.717,0,0.99
		l1.178,1.176c0.271,0.273,0.352,0.779,0.182,1.123l-0.309,0.752c-0.123,0.369-0.539,0.666-0.926,0.666h-1.666
		c-0.383,0-0.701,0.316-0.701,0.703v2.57c0,0.387,0.318,0.703,0.701,0.703h1.666c0.387,0,0.803,0.299,0.926,0.664l0.309,0.752
		c0.17,0.346,0.09,0.854-0.182,1.127l-1.178,1.176c-0.273,0.271-0.273,0.721,0,0.992l1.82,1.82c0.271,0.271,0.721,0.271,0.99,0
		l1.178-1.178c0.271-0.273,0.777-0.355,1.123-0.184l0.752,0.311c0.367,0.123,0.668,0.539,0.668,0.924v1.666
		c0,0.387,0.313,0.701,0.699,0.701h2.574c0.385,0,0.705-0.314,0.705-0.701v-1.666c0-0.385,0.297-0.801,0.662-0.924l0.75-0.311
		c0.346-0.172,0.85-0.09,1.123,0.184l1.18,1.178c0.273,0.271,0.721,0.271,0.992,0l1.818-1.82c0.273-0.271,0.273-0.721,0-0.992
		l-1.178-1.176c-0.271-0.273-0.354-0.781-0.182-1.127l0.311-0.752c0.121-0.365,0.538-0.664,0.928-0.664h1.662
		c0.385,0,0.701-0.316,0.701-0.703v-2.57C300.36,236.289,300.044,235.973,299.659,235.973z M289.601,241.352
		c-1.873,0-3.391-1.518-3.391-3.391c0-1.875,1.518-3.391,3.391-3.391s3.391,1.516,3.391,3.391
		C292.991,239.834,291.474,241.352,289.601,241.352z"/>
	<g>
		<g>
			<path fill="#B3B3B3" d="M293.442,158.719h-8.152c-0.631,0-1.145-0.514-1.145-1.145v-10.596c0-0.631,0.514-1.145,1.145-1.145
				h8.152c0.63,0,1.143,0.514,1.143,1.145v10.596C294.585,158.205,294.072,158.719,293.442,158.719z M286.146,156.719h6.439v-8.885
				h-6.439V156.719z"/>
		</g>
		<g>
			<path fill="#B3B3B3" d="M306.448,158.719h-8.15c-0.631,0-1.145-0.514-1.145-1.145V135.23c0-0.631,0.514-1.145,1.145-1.145h8.15
				c0.631,0,1.145,0.514,1.145,1.145v22.344C307.593,158.205,307.079,158.719,306.448,158.719z M299.153,156.719h6.439v-20.633
				h-6.439V156.719z"/>
		</g>
		<g>
			<path fill="#B3B3B3" d="M319.456,158.719h-8.15c-0.631,0-1.145-0.514-1.145-1.145v-34.617c0-0.631,0.514-1.145,1.145-1.145h8.15
				c0.631,0,1.145,0.514,1.145,1.145v34.617C320.601,158.205,320.087,158.719,319.456,158.719z M312.161,156.719h6.439v-32.906
				h-6.439V156.719z"/>
		</g>
	</g>
	<g>
		<g>
			<path fill="#B3B3B3" d="M207.665,77.904c-10.657,0-19.328-8.67-19.328-19.326s8.671-19.326,19.328-19.326
				c10.655,0,19.324,8.67,19.324,19.326S218.32,77.904,207.665,77.904z M207.665,40.252c-10.106,0-18.328,8.221-18.328,18.326
				s8.222,18.326,18.328,18.326c10.104,0,18.324-8.221,18.324-18.326S217.77,40.252,207.665,40.252z"/>
		</g>
		<g>
			<g>
				<g>
					<path fill="#B3B3B3" d="M214.616,46.922c-0.066,0-0.134-0.018-0.195-0.053c-0.187-0.107-0.249-0.346-0.142-0.533l0.451-0.777
						c0.107-0.188,0.345-0.248,0.532-0.143c0.187,0.107,0.249,0.346,0.142,0.533l-0.451,0.777
						C214.881,46.852,214.75,46.922,214.616,46.922z"/>
				</g>
				<g>
					<path fill="#B3B3B3" d="M200.257,71.797c-0.065,0-0.132-0.016-0.193-0.051c-0.187-0.107-0.251-0.346-0.145-0.531l0.447-0.783
						c0.105-0.188,0.343-0.254,0.531-0.145c0.187,0.107,0.251,0.346,0.145,0.531l-0.447,0.783
						C200.523,71.727,200.392,71.797,200.257,71.797z"/>
				</g>
				<g>
					<path fill="#B3B3B3" d="M220.489,66.371c-0.066,0-0.133-0.016-0.194-0.051l-0.775-0.445c-0.187-0.107-0.25-0.346-0.144-0.533
						c0.107-0.188,0.347-0.25,0.532-0.143l0.775,0.445c0.187,0.107,0.25,0.346,0.144,0.531
						C220.755,66.301,220.624,66.371,220.489,66.371z"/>
				</g>
				<g>
					<path fill="#B3B3B3" d="M195.622,52.012c-0.066,0-0.133-0.016-0.193-0.051l-0.781-0.447c-0.187-0.107-0.251-0.346-0.145-0.531
						c0.107-0.188,0.348-0.252,0.531-0.145l0.781,0.447c0.187,0.105,0.251,0.344,0.145,0.531
						C195.888,51.941,195.757,52.012,195.622,52.012z"/>
				</g>
			</g>
			<g>
				<g>
					<path fill="#B3B3B3" d="M200.71,46.922c-0.135,0-0.266-0.07-0.338-0.195l-0.447-0.779c-0.106-0.186-0.043-0.424,0.144-0.531
						c0.188-0.107,0.425-0.043,0.532,0.143l0.447,0.779c0.106,0.186,0.043,0.424-0.144,0.531
						C200.843,46.904,200.776,46.922,200.71,46.922z"/>
				</g>
				<g>
					<path fill="#B3B3B3" d="M215.077,71.797c-0.134,0-0.265-0.068-0.337-0.193l-0.455-0.781c-0.107-0.188-0.045-0.426,0.141-0.533
						c0.187-0.107,0.426-0.045,0.533,0.141l0.455,0.781c0.107,0.188,0.045,0.426-0.141,0.533
						C215.211,71.779,215.144,71.797,215.077,71.797z"/>
				</g>
				<g>
					<path fill="#B3B3B3" d="M194.841,66.371c-0.135,0-0.267-0.07-0.338-0.197c-0.106-0.186-0.042-0.424,0.146-0.529l0.781-0.445
						c0.185-0.109,0.423-0.043,0.53,0.145c0.106,0.188,0.042,0.424-0.146,0.531l-0.781,0.445
						C194.973,66.355,194.906,66.371,194.841,66.371z"/>
				</g>
				<g>
					<path fill="#B3B3B3" d="M219.714,52.012c-0.134,0-0.266-0.07-0.337-0.195c-0.107-0.186-0.044-0.424,0.143-0.531l0.775-0.447
						c0.186-0.109,0.425-0.043,0.531,0.143c0.107,0.188,0.044,0.424-0.143,0.531l-0.775,0.447
						C219.847,51.996,219.78,52.012,219.714,52.012z"/>
				</g>
			</g>
			<g>
				<g>
					<path fill="#B3B3B3" d="M193.753,58.967L193.753,58.967l-0.897-0.002c-0.215,0-0.389-0.176-0.389-0.391
						c0.001-0.215,0.175-0.389,0.39-0.389h0.001l0.896,0.002c0.215,0.002,0.389,0.176,0.389,0.391
						C194.142,58.793,193.968,58.967,193.753,58.967z"/>
				</g>
				<g>
					<path fill="#B3B3B3" d="M221.575,58.967c-0.214,0-0.389-0.174-0.39-0.387c-0.001-0.217,0.173-0.391,0.388-0.393l0.904-0.004
						c0.001,0,0.001,0,0.002,0c0.214,0,0.389,0.174,0.39,0.389s-0.173,0.391-0.388,0.391l-0.904,0.004
						C221.576,58.967,221.576,58.967,221.575,58.967z"/>
				</g>
				<g>
					<path fill="#B3B3B3" d="M207.663,73.777C207.662,73.777,207.662,73.777,207.663,73.777c-0.217,0-0.391-0.176-0.39-0.391
						l0.004-0.902c0.001-0.213,0.176-0.387,0.39-0.387c0.001,0,0.001,0,0.002,0c0.215,0,0.389,0.176,0.388,0.391l-0.004,0.902
						C208.052,73.604,207.877,73.777,207.663,73.777z"/>
				</g>
				<g>
					<path fill="#B3B3B3" d="M207.665,45.057c-0.215,0-0.39-0.176-0.39-0.391v-0.895c0-0.215,0.175-0.391,0.39-0.391
						s0.39,0.176,0.39,0.391v0.895C208.055,44.881,207.88,45.057,207.665,45.057z"/>
				</g>
			</g>
			<g>
				<path fill="#B3B3B3" d="M207.665,56.777c0.281,0,0.544,0.07,0.78,0.185v-9.974c0-0.43-0.349-0.777-0.778-0.777
					s-0.778,0.348-0.778,0.777v9.971C207.125,56.846,207.386,56.777,207.665,56.777z"/>
				<path fill="#B3B3B3" d="M205.971,59.173l-3.929,3.929c-0.304,0.303-0.304,0.797,0,1.102c0.152,0.152,0.352,0.227,0.551,0.227
					s0.398-0.074,0.551-0.227l3.931-3.931C206.558,60.093,206.152,59.688,205.971,59.173z"/>
			</g>
		</g>
		<path fill="#B3B3B3" d="M207.665,55.658c-1.613,0-2.922,1.309-2.922,2.92c0,1.613,1.309,2.922,2.922,2.922
			c1.61,0,2.92-1.309,2.92-2.922C210.585,56.967,209.275,55.658,207.665,55.658z M207.665,60.379c-0.996,0-1.803-0.805-1.803-1.801
			c0-0.994,0.807-1.801,1.803-1.801c0.994,0,1.799,0.807,1.799,1.801C209.464,59.574,208.659,60.379,207.665,60.379z"/>
		<circle fill="#B3B3B3" cx="207.664" cy="58.578" r="0.894"/>
		<g>
			<path fill="#B3B3B3" d="M207.667,58.969c-0.167,0-0.322-0.107-0.373-0.277c-0.062-0.205,0.055-0.422,0.261-0.484l10.105-3.053
				c0.206-0.059,0.424,0.055,0.485,0.26c0.062,0.207-0.055,0.424-0.261,0.486l-10.105,3.053
				C207.742,58.963,207.704,58.969,207.667,58.969z"/>
		</g>
	</g>
	<g>
		<polygon fill="#B3B3B3" points="314.86,65.145 320.521,47.721 326.183,30.297 308.761,35.959 291.337,41.621 303.253,47.742 
			293.95,57.045 299.435,62.527 308.737,53.225 		"/>
		<polygon fill="#FFFFFF" points="314.86,60.145 320.521,42.721 326.183,25.297 308.761,30.959 291.337,36.621 303.253,42.742 
			293.95,52.045 299.435,57.527 308.737,48.225 		"/>
		<polygon fill="#D1EBFA" points="320.521,42.721 326.183,25.297 325.603,25.486 296.497,54.592 299.435,57.527 308.737,48.225 
			314.86,60.145 		"/>
	</g>
	<g>
		<path fill="#B3B3B3" d="M165.729,327.385c-1.608,0-3.247-0.076-4.873-0.229c-0.55-0.053-0.953-0.541-0.901-1.09
			c0.051-0.551,0.534-0.959,1.089-0.902c2.293,0.215,4.574,0.273,6.851,0.172c0.549-0.051,1.02,0.402,1.044,0.955
			c0.024,0.551-0.402,1.02-0.954,1.043C167.231,327.369,166.479,327.385,165.729,327.385z M174.884,326.516
			c-0.469,0-0.888-0.332-0.98-0.811c-0.105-0.541,0.249-1.066,0.791-1.172c2.23-0.434,4.453-1.039,6.604-1.801
			c0.522-0.184,1.094,0.09,1.276,0.609c0.185,0.52-0.088,1.092-0.608,1.275c-2.244,0.795-4.563,1.428-6.891,1.879
			C175.011,326.51,174.947,326.516,174.884,326.516z M154.041,326.059c-0.072,0-0.146-0.008-0.219-0.023
			c-2.266-0.506-4.567-1.164-6.843-1.955c-0.521-0.18-0.798-0.75-0.616-1.271c0.181-0.521,0.749-0.801,1.272-0.617
			c2.203,0.766,4.432,1.402,6.622,1.893c0.539,0.119,0.879,0.654,0.758,1.193C154.912,325.742,154.499,326.059,154.041,326.059z
			 M188.032,321.855c-0.352,0-0.693-0.186-0.876-0.516c-0.268-0.484-0.093-1.092,0.391-1.359c2.17-1.203,3.896-2.584,5.13-4.107
			c0.348-0.43,0.979-0.496,1.406-0.148c0.43,0.348,0.496,0.977,0.148,1.406c-1.396,1.725-3.319,3.271-5.716,4.6
			C188.362,321.814,188.196,321.855,188.032,321.855z M140.825,321.494c-0.142,0-0.286-0.031-0.423-0.096
			c-2.114-0.988-4.225-2.104-6.274-3.314c-0.476-0.281-0.633-0.895-0.353-1.369c0.281-0.475,0.894-0.631,1.37-0.354
			c1.994,1.178,4.048,2.264,6.104,3.227c0.5,0.234,0.716,0.83,0.481,1.33C141.562,321.281,141.201,321.494,140.825,321.494z
			 M128.774,314.393c-0.202,0-0.407-0.063-0.584-0.189c-1.922-1.385-3.792-2.867-5.56-4.406c-0.417-0.361-0.461-0.994-0.098-1.41
			c0.363-0.418,0.996-0.459,1.41-0.098c1.722,1.498,3.544,2.943,5.417,4.291c0.447,0.324,0.549,0.949,0.227,1.396
			C129.392,314.248,129.085,314.393,128.774,314.393z M100.852,313.467c-0.547,0-0.993-0.439-1-0.986
			c-0.007-0.553,0.436-1.006,0.987-1.014c2.285-0.027,4.481-0.42,6.53-1.164c0.52-0.184,1.092,0.08,1.281,0.6
			c0.188,0.52-0.08,1.094-0.6,1.281c-2.259,0.82-4.677,1.252-7.187,1.283C100.86,313.467,100.855,313.467,100.852,313.467z
			 M93.938,312.572c-0.085,0-0.17-0.012-0.256-0.033c-2.188-0.576-4.448-1.43-6.716-2.535c-0.496-0.24-0.702-0.84-0.46-1.336
			c0.24-0.496,0.837-0.707,1.337-0.461c2.15,1.049,4.286,1.855,6.349,2.398c0.534,0.141,0.853,0.688,0.712,1.221
			C94.785,312.275,94.381,312.572,93.938,312.572z M196.067,311.125c-0.029,0-0.06-0.002-0.089-0.004
			c-0.551-0.049-0.957-0.535-0.908-1.084c0.03-0.346,0.045-0.693,0.045-1.041c0-1.672-0.346-3.49-1.027-5.402
			c-0.185-0.52,0.087-1.092,0.606-1.277c0.523-0.186,1.092,0.086,1.278,0.605c0.758,2.129,1.143,4.174,1.143,6.074
			c0,0.406-0.017,0.813-0.053,1.217C197.017,310.732,196.58,311.125,196.067,311.125z M113.723,308.736
			c-0.28,0-0.559-0.117-0.757-0.346c-0.361-0.418-0.314-1.051,0.103-1.412c1.076-0.93,2.187-2.084,3.271-3.395
			c-1.242-1.402-2.375-2.813-3.377-4.205c-0.322-0.449-0.221-1.074,0.228-1.396c0.448-0.32,1.074-0.221,1.396,0.229
			c0.897,1.246,1.905,2.51,3.008,3.771c0.007-0.008,0.013-0.018,0.02-0.025c0.328-0.443,0.953-0.539,1.398-0.209
			c0.444,0.328,0.538,0.953,0.209,1.398c-0.086,0.115-0.173,0.232-0.26,0.346c0.004,0.004,0.007,0.008,0.01,0.012
			c0.378,0.402,0.357,1.035-0.046,1.412c-0.335,0.313-0.824,0.354-1.198,0.129c-1.106,1.32-2.243,2.492-3.349,3.447
			C114.188,308.656,113.955,308.736,113.723,308.736z M81.366,306.588c-0.192,0-0.387-0.055-0.559-0.17
			c-1.855-1.254-3.759-2.695-5.657-4.283c-0.424-0.354-0.479-0.984-0.125-1.408c0.353-0.422,0.983-0.48,1.408-0.125
			c1.846,1.545,3.694,2.943,5.493,4.158c0.458,0.309,0.578,0.93,0.27,1.389C82.003,306.434,81.688,306.588,81.366,306.588z
			 M191.888,298.014c-0.33,0-0.653-0.162-0.845-0.463c-1.137-1.783-2.514-3.643-4.095-5.521c-0.355-0.424-0.301-1.055,0.122-1.41
			c0.422-0.355,1.054-0.301,1.409,0.123c1.637,1.947,3.066,3.877,4.251,5.734c0.297,0.467,0.159,1.084-0.307,1.381
			C192.258,297.963,192.071,298.014,191.888,298.014z M70.614,297.666c-0.252,0-0.505-0.094-0.699-0.285
			c-1.619-1.584-3.262-3.299-4.884-5.094c-0.37-0.41-0.338-1.043,0.072-1.412c0.409-0.369,1.042-0.34,1.412,0.072
			c1.595,1.764,3.209,3.449,4.798,5.004c0.395,0.387,0.401,1.02,0.016,1.414C71.133,297.566,70.874,297.666,70.614,297.666z
			 M122.05,297.574c-0.145,0-0.292-0.031-0.432-0.098c-0.498-0.24-0.708-0.838-0.469-1.334c1.114-2.32,1.789-4.506,1.949-6.316
			c0.049-0.551,0.539-0.965,1.084-0.908c0.551,0.049,0.957,0.533,0.908,1.084c-0.184,2.078-0.903,4.436-2.139,7.006
			C122.78,297.365,122.423,297.574,122.05,297.574z M110.257,293.754c-0.388,0-0.757-0.227-0.919-0.605
			c-0.868-2.023-1.309-3.854-1.31-5.441c0-0.729,0.094-1.412,0.279-2.031c0.158-0.529,0.713-0.828,1.245-0.67
			c0.529,0.158,0.829,0.715,0.671,1.244c-0.13,0.434-0.195,0.922-0.195,1.455c0.001,1.314,0.387,2.881,1.147,4.654
			c0.218,0.508-0.018,1.096-0.524,1.313C110.522,293.729,110.389,293.754,110.257,293.754z M61.217,287.309
			c-0.29,0-0.577-0.125-0.775-0.367c-1.425-1.74-2.885-3.604-4.341-5.537c-0.332-0.441-0.244-1.068,0.197-1.4s1.07-0.242,1.4,0.197
			c1.439,1.912,2.884,3.754,4.292,5.475c0.35,0.428,0.286,1.057-0.142,1.408C61.663,287.234,61.439,287.309,61.217,287.309z
			 M182.951,287.242c-0.254,0-0.508-0.096-0.703-0.289c-2.862-2.83-5.104-4.631-5.126-4.648c-0.431-0.346-0.501-0.975-0.155-1.406
			c0.346-0.43,0.975-0.502,1.405-0.154c0.094,0.074,2.339,1.877,5.282,4.787c0.393,0.387,0.396,1.021,0.008,1.414
			C183.467,287.143,183.209,287.242,182.951,287.242z M121.573,284.791c-0.184,0-0.37-0.051-0.536-0.156
			c-1.383-0.883-3.444-1.266-6.18-1.115c-0.517,0.016-1.022-0.393-1.053-0.945c-0.029-0.551,0.394-1.021,0.945-1.051
			c3.192-0.182,5.616,0.313,7.361,1.424c0.466,0.297,0.604,0.914,0.307,1.381C122.227,284.627,121.903,284.791,121.573,284.791z
			 M52.792,276.139c-0.315,0-0.626-0.148-0.82-0.426c-1.313-1.877-2.641-3.834-3.944-5.816c-0.303-0.461-0.175-1.08,0.287-1.385
			c0.462-0.303,1.083-0.174,1.385,0.287c1.292,1.967,2.608,3.906,3.911,5.768c0.316,0.451,0.207,1.074-0.246,1.393
			C53.19,276.08,52.99,276.139,52.792,276.139z M45.097,264.451c-0.334,0-0.661-0.166-0.851-0.471
			c-1.191-1.918-2.416-3.938-3.639-6.002c-0.281-0.477-0.124-1.09,0.351-1.371c0.479-0.279,1.091-0.125,1.37,0.352
			c1.216,2.053,2.433,4.061,3.617,5.965c0.291,0.469,0.147,1.086-0.321,1.377C45.459,264.402,45.277,264.451,45.097,264.451z
			 M37.984,252.398c-0.353,0-0.695-0.188-0.877-0.518c-1.135-2.064-2.231-4.164-3.26-6.242c-0.245-0.496-0.042-1.096,0.453-1.34
			c0.493-0.246,1.094-0.043,1.34,0.453c1.016,2.053,2.099,4.127,3.219,6.164c0.267,0.484,0.09,1.092-0.394,1.357
			C38.313,252.357,38.147,252.398,37.984,252.398z M31.788,239.852c-0.386,0-0.753-0.225-0.917-0.6
			c-0.946-2.16-1.845-4.354-2.672-6.52c-0.196-0.516,0.063-1.094,0.578-1.291c0.516-0.201,1.094,0.063,1.291,0.578
			c0.814,2.137,1.701,4.301,2.635,6.43c0.222,0.506-0.009,1.096-0.515,1.318C32.058,239.824,31.922,239.852,31.788,239.852z
			 M26.804,226.775c-0.422,0-0.814-0.27-0.951-0.691c-0.728-2.244-1.398-4.52-1.995-6.764c-0.142-0.535,0.177-1.082,0.71-1.225
			c0.535-0.139,1.082,0.178,1.224,0.711c0.587,2.209,1.247,4.449,1.964,6.66c0.17,0.525-0.117,1.09-0.643,1.26
			C27.01,226.76,26.905,226.775,26.804,226.775z M23.212,213.252c-0.464,0-0.881-0.324-0.979-0.797
			c-0.478-2.311-0.892-4.646-1.231-6.949c-0.081-0.545,0.297-1.055,0.844-1.135c0.543-0.09,1.055,0.299,1.135,0.844
			c0.334,2.264,0.741,4.563,1.212,6.836c0.111,0.539-0.236,1.068-0.777,1.182C23.348,213.246,23.279,213.252,23.212,213.252z
			 M21.173,199.41c-0.514,0-0.95-0.393-0.995-0.912c-0.204-2.342-0.339-4.713-0.4-7.049c-0.015-0.551,0.422-1.012,0.974-1.025
			c0.009,0,0.018,0,0.027,0c0.54,0,0.984,0.43,0.999,0.973c0.06,2.295,0.192,4.627,0.393,6.928c0.048,0.551-0.359,1.035-0.909,1.082
			C21.231,199.41,21.202,199.41,21.173,199.41z M20.812,185.426c-0.013,0-0.024,0-0.036-0.002c-0.553-0.02-0.983-0.482-0.964-1.033
			c0.083-2.342,0.241-4.711,0.471-7.043c0.054-0.549,0.543-0.949,1.093-0.896s0.951,0.543,0.897,1.092
			c-0.225,2.291-0.381,4.617-0.463,6.918C21.791,185,21.347,185.426,20.812,185.426z M22.183,171.508
			c-0.053,0-0.106-0.004-0.161-0.012c-0.545-0.09-0.915-0.604-0.827-1.148c0.375-2.313,0.829-4.645,1.35-6.928
			c0.122-0.539,0.659-0.881,1.196-0.754c0.539,0.123,0.876,0.658,0.753,1.197c-0.511,2.242-0.956,4.533-1.324,6.805
			C23.089,171.16,22.665,171.508,22.183,171.508z M25.282,157.869c-0.093,0-0.188-0.012-0.282-0.041
			c-0.529-0.154-0.833-0.711-0.677-1.24c0.659-2.246,1.399-4.502,2.199-6.709c0.188-0.52,0.762-0.785,1.281-0.6
			c0.52,0.188,0.787,0.762,0.6,1.281c-0.786,2.168-1.514,4.385-2.162,6.592C26.113,157.588,25.715,157.869,25.282,157.869z
			 M30.047,144.717c-0.132,0-0.268-0.027-0.396-0.084c-0.507-0.219-0.739-0.807-0.52-1.314c0.933-2.15,1.943-4.301,3.005-6.389
			c0.25-0.492,0.851-0.688,1.345-0.439c0.492,0.25,0.688,0.854,0.438,1.346c-1.043,2.053-2.037,4.164-2.954,6.277
			C30.802,144.492,30.434,144.717,30.047,144.717z M36.383,132.24c-0.172,0-0.346-0.045-0.505-0.139
			c-0.477-0.279-0.636-0.891-0.356-1.367c1.189-2.029,2.452-4.041,3.755-5.98c0.307-0.457,0.93-0.582,1.388-0.273
			s0.58,0.93,0.272,1.389c-1.279,1.906-2.521,3.883-3.69,5.877C37.061,132.063,36.727,132.24,36.383,132.24z M44.181,120.619
			c-0.211,0-0.425-0.066-0.605-0.205c-0.439-0.336-0.523-0.963-0.188-1.402c1.428-1.871,2.928-3.715,4.457-5.48
			c0.363-0.416,0.994-0.461,1.411-0.1s0.462,0.992,0.101,1.41c-1.503,1.734-2.976,3.545-4.379,5.383
			C44.78,120.482,44.482,120.619,44.181,120.619z M111.412,118.494c-0.054,0-0.109-0.004-0.165-0.014
			c-2.548-0.424-4.833-1.43-6.789-2.992c-0.432-0.344-0.502-0.973-0.157-1.404c0.345-0.43,0.973-0.502,1.405-0.158
			c1.687,1.346,3.661,2.215,5.869,2.582c0.545,0.09,0.913,0.605,0.822,1.15C112.316,118.146,111.893,118.494,111.412,118.494z
			 M118.363,118.244c-0.463,0-0.878-0.322-0.978-0.793c-0.114-0.541,0.231-1.072,0.771-1.186c2.429-0.514,4.402-1.404,5.865-2.646
			c0.423-0.355,1.052-0.307,1.41,0.115c0.357,0.42,0.306,1.053-0.115,1.41c-1.72,1.459-3.989,2.494-6.746,3.078
			C118.501,118.236,118.432,118.244,118.363,118.244z M100.806,110.244c-0.369,0-0.724-0.205-0.897-0.559
			c-1.004-2.035-1.733-4.369-2.167-6.934c-0.092-0.545,0.275-1.061,0.819-1.152c0.546-0.086,1.061,0.275,1.153,0.818
			c0.4,2.375,1.069,4.521,1.987,6.383c0.245,0.496,0.041,1.096-0.454,1.34C101.104,110.211,100.954,110.244,100.806,110.244z
			 M53.353,110.045c-0.254,0-0.508-0.096-0.702-0.287c-0.394-0.389-0.397-1.021-0.01-1.414c1.667-1.689,3.394-3.326,5.132-4.863
			c0.411-0.365,1.045-0.328,1.411,0.086s0.327,1.045-0.086,1.412c-1.704,1.508-3.397,3.111-5.033,4.77
			C53.869,109.945,53.61,110.045,53.353,110.045z M127.801,109.336c-0.026,0-0.053-0.002-0.079-0.004
			c-0.551-0.043-0.962-0.523-0.919-1.074c0.018-0.225,0.026-0.449,0.026-0.676c0-1.744-0.525-3.639-1.519-5.482
			c-0.263-0.486-0.081-1.094,0.405-1.355c0.489-0.264,1.094-0.08,1.354,0.406c1.15,2.135,1.759,4.357,1.759,6.432
			c0,0.279-0.011,0.555-0.032,0.832C128.756,108.938,128.317,109.336,127.801,109.336z M63.848,100.785
			c-0.303,0-0.601-0.137-0.798-0.395c-0.334-0.439-0.248-1.068,0.192-1.402c1.913-1.451,3.869-2.814,5.813-4.049
			c0.465-0.299,1.083-0.158,1.38,0.309c0.297,0.465,0.158,1.084-0.308,1.379c-1.897,1.207-3.808,2.537-5.677,3.955
			C64.271,100.719,64.058,100.785,63.848,100.785z M121.827,97.195c-0.239,0-0.479-0.084-0.671-0.258
			c-1.593-1.441-3.453-2.738-5.529-3.855c-0.486-0.262-0.669-0.867-0.407-1.354c0.261-0.488,0.871-0.67,1.354-0.408
			c2.219,1.195,4.211,2.586,5.924,4.135c0.409,0.369,0.441,1.002,0.07,1.412C122.371,97.084,122.1,97.195,121.827,97.195z
			 M98.292,96.611c-0.012,0-0.022,0-0.033-0.002c-0.552-0.018-0.985-0.479-0.967-1.031c0.073-2.289,0.338-4.678,0.787-7.1
			c0.101-0.545,0.619-0.906,1.166-0.801c0.543,0.1,0.901,0.623,0.801,1.166c-0.431,2.322-0.686,4.609-0.756,6.799
			C99.273,96.184,98.829,96.611,98.292,96.611z M75.68,93.326c-0.366,0-0.72-0.201-0.895-0.551
			c-0.248-0.494-0.048-1.096,0.445-1.342c2.22-1.113,4.424-2.055,6.554-2.799c0.524-0.18,1.092,0.094,1.274,0.613
			c0.182,0.521-0.093,1.092-0.614,1.275c-2.049,0.715-4.175,1.623-6.317,2.697C75.983,93.293,75.83,93.326,75.68,93.326z
			 M109.652,90.51c-0.099,0-0.199-0.016-0.299-0.047c-2.106-0.658-4.35-1.164-6.666-1.506c-0.546-0.08-0.924-0.588-0.844-1.135
			c0.08-0.545,0.579-0.934,1.135-0.844c2.419,0.355,4.766,0.887,6.973,1.576c0.526,0.166,0.82,0.727,0.655,1.254
			C110.473,90.236,110.078,90.51,109.652,90.51z M88.882,88.836c-0.483,0-0.909-0.352-0.986-0.844
			c-0.087-0.547,0.286-1.059,0.831-1.145c1.012-0.16,2.009-0.268,2.964-0.322c1.167-0.066,2.336-0.1,3.475-0.1l0.71,0.004
			c0.552,0.006,0.994,0.459,0.987,1.012c-0.007,0.549-0.453,0.988-1,0.988c-0.004,0-0.009,0-0.013,0l-0.685-0.004
			c-1.101,0-2.231,0.031-3.361,0.096c-0.889,0.051-1.819,0.152-2.765,0.301C88.986,88.832,88.934,88.836,88.882,88.836z
			 M100.777,82.879c-0.101,0-0.203-0.016-0.304-0.047c-0.526-0.168-0.816-0.732-0.649-1.258c0.707-2.213,1.56-4.447,2.534-6.639
			c0.226-0.504,0.817-0.73,1.32-0.508c0.505,0.225,0.731,0.816,0.508,1.32c-0.946,2.127-1.772,4.291-2.456,6.434
			C101.595,82.607,101.201,82.879,100.777,82.879z M106.438,70.102c-0.168,0-0.339-0.043-0.495-0.133
			c-0.479-0.273-0.646-0.885-0.372-1.363c1.157-2.027,2.438-4.041,3.804-5.984c0.318-0.451,0.94-0.561,1.394-0.244
			c0.452,0.318,0.561,0.941,0.243,1.395c-1.331,1.893-2.577,3.854-3.704,5.826C107.122,69.92,106.785,70.102,106.438,70.102z
			 M283.488,61.715c-0.724,0-1.485-0.047-2.264-0.137c-0.549-0.063-0.942-0.559-0.879-1.107s0.561-0.945,1.107-0.879
			c2.459,0.283,4.606,0.068,6.399-0.652c0.51-0.203,1.093,0.041,1.301,0.555c0.206,0.512-0.042,1.094-0.555,1.301
			C287.081,61.406,285.361,61.715,283.488,61.715z M244.991,61.418c-0.003,0-0.005,0-0.007,0c-1.736,0-3.066-0.707-3.746-1.99
			c-0.259-0.486-0.072-1.092,0.416-1.352c0.483-0.26,1.093-0.072,1.352,0.416c0.325,0.613,0.991,0.926,1.979,0.926
			c0.001,0,0.003,0,0.005,0c0.879,0,1.954-0.252,3.111-0.729c0.514-0.207,1.096,0.033,1.306,0.543
			c0.21,0.512-0.033,1.096-0.544,1.307C247.447,61.121,246.145,61.418,244.991,61.418z M274.548,59.934
			c-0.108,0-0.218-0.018-0.326-0.055c-1.922-0.664-4.012-1.504-6.578-2.645c-0.505-0.225-0.731-0.816-0.508-1.32
			c0.226-0.506,0.817-0.732,1.32-0.508c2.513,1.117,4.552,1.938,6.418,2.582c0.521,0.18,0.799,0.748,0.619,1.271
			C275.351,59.674,274.963,59.934,274.548,59.934z M114.475,58.662c-0.232,0-0.465-0.08-0.654-0.244
			c-0.418-0.361-0.464-0.992-0.103-1.41c1.473-1.703,3.161-3.406,5.018-5.061c0.41-0.367,1.042-0.33,1.412,0.082
			c0.367,0.412,0.33,1.045-0.082,1.412c-1.792,1.596-3.419,3.236-4.834,4.875C115.033,58.545,114.755,58.662,114.475,58.662z
			 M254.288,56.76c-0.266,0-0.53-0.105-0.727-0.313c-0.38-0.402-0.361-1.035,0.04-1.414c0.984-0.93,1.851-1.938,2.571-2.984
			c-0.43-0.176-0.855-0.344-1.274-0.504c-0.516-0.195-0.775-0.773-0.579-1.289c0.195-0.518,0.773-0.777,1.29-0.58
			c0.526,0.201,1.063,0.414,1.604,0.637c0.1-0.191,0.193-0.387,0.281-0.58c0.229-0.502,0.819-0.721,1.325-0.494
			c0.503,0.229,0.724,0.822,0.495,1.324c-0.082,0.18-0.168,0.359-0.258,0.537c1.025,0.451,2.051,0.92,3.048,1.381
			c0.501,0.232,0.72,0.826,0.487,1.328c-0.231,0.5-0.823,0.723-1.327,0.486c-1.053-0.486-2.137-0.98-3.217-1.453
			c-0.844,1.287-1.883,2.521-3.073,3.645C254.781,56.67,254.534,56.76,254.288,56.76z M242.787,53.174
			c-0.144,0-0.29-0.031-0.429-0.098c-0.499-0.238-0.711-0.834-0.474-1.332c1.252-2.629,3.521-3.906,6.634-3.795
			c0.552,0.018,0.984,0.48,0.965,1.033c-0.018,0.553-0.493,1.027-1.033,0.965c-2.331-0.066-3.854,0.756-4.759,2.656
			C243.52,52.963,243.161,53.174,242.787,53.174z M124.854,49.311c-0.309,0-0.613-0.143-0.809-0.41
			c-0.326-0.445-0.228-1.072,0.218-1.396c1.834-1.338,3.812-2.664,5.88-3.941c0.467-0.291,1.085-0.146,1.376,0.324
			c0.29,0.471,0.145,1.086-0.325,1.377c-2.024,1.25-3.959,2.547-5.751,3.855C125.264,49.248,125.058,49.311,124.854,49.311z
			 M259.463,44.332c-0.486,0-0.913-0.354-0.987-0.85c-0.303-1.996-1.224-3.932-2.737-5.756c-0.353-0.424-0.294-1.055,0.131-1.408
			c0.426-0.355,1.055-0.293,1.408,0.131c1.75,2.107,2.817,4.373,3.175,6.734c0.083,0.545-0.293,1.055-0.839,1.137
			C259.563,44.328,259.513,44.332,259.463,44.332z M136.744,41.93c-0.357,0-0.703-0.191-0.884-0.529
			c-0.26-0.488-0.075-1.094,0.412-1.354c2.014-1.072,4.139-2.129,6.318-3.143c0.502-0.23,1.096-0.016,1.329,0.484
			c0.232,0.502,0.015,1.096-0.485,1.33c-2.147,0.998-4.24,2.039-6.221,3.094C137.063,41.893,136.902,41.93,136.744,41.93z
			 M149.435,36.021c-0.395,0-0.769-0.234-0.927-0.623c-0.208-0.512,0.038-1.096,0.55-1.303c2.135-0.867,4.351-1.711,6.587-2.504
			c0.521-0.186,1.092,0.086,1.277,0.607c0.185,0.52-0.087,1.092-0.607,1.277c-2.209,0.783-4.396,1.615-6.503,2.473
			C149.688,35.998,149.561,36.021,149.435,36.021z M251.228,33.535c-0.188,0-0.377-0.053-0.546-0.164
			c-1.03-0.672-2.171-1.33-3.392-1.957c-0.85-0.438-1.735-0.861-2.634-1.262c-0.504-0.225-0.731-0.814-0.506-1.32
			c0.224-0.504,0.814-0.732,1.32-0.506c0.931,0.414,1.851,0.855,2.733,1.309c1.281,0.658,2.483,1.352,3.571,2.063
			c0.462,0.303,0.593,0.922,0.29,1.385C251.874,33.375,251.554,33.535,251.228,33.535z M162.626,31.33
			c-0.428,0-0.823-0.275-0.955-0.705c-0.163-0.529,0.133-1.088,0.66-1.25c2.211-0.684,4.489-1.336,6.771-1.939
			c0.535-0.141,1.081,0.178,1.223,0.711c0.142,0.535-0.177,1.082-0.711,1.223c-2.256,0.598-4.508,1.242-6.693,1.916
			C162.822,31.314,162.724,31.33,162.626,31.33z M238.516,27.777c-0.1,0-0.2-0.016-0.301-0.047c-2.12-0.668-4.366-1.258-6.678-1.752
			c-0.54-0.115-0.884-0.648-0.768-1.188c0.115-0.539,0.643-0.887,1.188-0.768c2.371,0.508,4.679,1.113,6.858,1.799
			c0.527,0.166,0.82,0.729,0.654,1.256C239.335,27.504,238.94,27.777,238.516,27.777z M176.162,27.75
			c-0.458,0-0.872-0.318-0.976-0.783c-0.119-0.539,0.221-1.074,0.76-1.193c2.277-0.506,4.601-0.973,6.905-1.387
			c0.542-0.1,1.063,0.264,1.161,0.807s-0.264,1.064-0.808,1.162c-2.277,0.41-4.574,0.871-6.825,1.371
			C176.307,27.742,176.234,27.75,176.162,27.75z M189.945,25.277c-0.492,0-0.921-0.363-0.99-0.865
			c-0.074-0.547,0.309-1.051,0.855-1.127c2.344-0.318,4.699-0.59,7-0.801c0.561-0.053,1.037,0.354,1.088,0.904
			c0.051,0.549-0.354,1.037-0.904,1.088c-2.272,0.209-4.598,0.475-6.912,0.791C190.036,25.273,189.99,25.277,189.945,25.277z
			 M224.852,24.809c-0.044,0-0.088-0.002-0.133-0.008c-2.226-0.297-4.546-0.527-6.899-0.682c-0.551-0.037-0.968-0.514-0.932-1.064
			s0.525-0.955,1.064-0.932c2.396,0.158,4.762,0.393,7.03,0.695c0.548,0.072,0.933,0.576,0.859,1.123
			C225.774,24.443,225.346,24.809,224.852,24.809z M203.888,24c-0.531,0-0.975-0.418-0.998-0.955
			c-0.024-0.553,0.403-1.02,0.955-1.043c2.043-0.092,4.085-0.137,6.068-0.137l0.986,0.004c0.553,0.004,0.996,0.457,0.991,1.008
			s-0.452,0.992-1,0.992c-0.003,0-0.006,0-0.009,0l-0.969-0.004c-1.954,0-3.966,0.045-5.98,0.135C203.918,24,203.903,24,203.888,24z
			"/>
	</g>
	<g>
		<g>
			<path fill="#B3B3B3" d="M315.481,211.957c-0.01,0-0.02,0-0.03,0c-0.274-0.008-0.535-0.131-0.718-0.336
				c-0.621-0.699-2.577-2.561-4.151-2.781c-8.273-1.041-12.85-5.414-12.894-5.457c-2.576-2.576-3.994-5.998-3.994-9.635
				c0-3.639,1.418-7.061,3.994-9.635c2.573-2.576,5.995-3.994,9.635-3.994c3.639,0,7.062,1.418,9.637,3.994
				c0.044,0.043,4.414,4.617,5.455,12.91c0.224,1.547,2.103,3.48,2.808,4.094c0.21,0.182,0.334,0.443,0.344,0.721
				s-0.096,0.547-0.292,0.742l-9.086,9.084C316.001,211.852,315.746,211.957,315.481,211.957z M307.323,182.119
				c-3.105,0-6.024,1.211-8.221,3.408c-2.198,2.197-3.408,5.117-3.408,8.221s1.21,6.021,3.408,8.221
				c0.039,0.039,4.147,3.934,11.744,4.889c1.852,0.26,3.658,1.736,4.644,2.678l7.646-7.646c-0.951-0.977-2.438-2.762-2.704-4.598
				c-0.956-7.619-4.848-11.725-4.887-11.764C313.348,183.33,310.428,182.119,307.323,182.119z"/>
		</g>
		<g>
			<path fill="#B3B3B3" d="M317.966,214.85c-0.256,0-0.512-0.098-0.707-0.293c-0.391-0.391-0.391-1.023,0-1.414l9.459-9.461
				c0.391-0.391,1.023-0.391,1.414,0s0.391,1.023,0,1.414l-9.459,9.461C318.478,214.752,318.222,214.85,317.966,214.85z"/>
		</g>
		<g>
			<path fill="#B3B3B3" d="M321.759,216.355c-0.256,0-0.512-0.098-0.707-0.293c-0.391-0.391-0.391-1.023,0-1.414l7.172-7.172
				c0.391-0.391,1.023-0.391,1.414,0s0.391,1.023,0,1.414l-7.172,7.172C322.271,216.258,322.015,216.355,321.759,216.355z"/>
		</g>
		<g>
			<g>
				
					<rect x="302.156" y="201.219" transform="matrix(0.787 0.6169 -0.6169 0.787 191.0193 -148.882)" fill="#B3B3B3" width="17.97" height="2"/>
			</g>
			<g>
				
					<rect x="306.809" y="196.565" transform="matrix(0.6169 0.787 -0.787 0.6169 276.4618 -172.8545)" fill="#B3B3B3" width="17.97" height="2"/>
			</g>
		</g>
		<g>
			<path fill="#B3B3B3" d="M307.125,199.475c-0.372,0-0.713-0.129-0.909-0.205c-0.08-0.031-0.158-0.066-0.231-0.082
				c0.089,0.02,0.323-0.004,0.508-0.189l-1.412-1.416c0.344-0.344,0.749-0.414,1.102-0.379c-0.034-0.354,0.033-0.756,0.378-1.102
				c0.342-0.344,0.735-0.412,1.099-0.379c-0.033-0.354,0.034-0.754,0.378-1.098c0.345-0.348,0.745-0.414,1.106-0.379
				c-0.034-0.357,0.033-0.762,0.379-1.107c0.348-0.346,0.753-0.41,1.11-0.379c-0.034-0.357,0.032-0.764,0.38-1.111l1.414,1.414
				c0.184-0.184,0.208-0.42,0.19-0.504c0.015,0.072,0.051,0.15,0.081,0.23c0.138,0.361,0.462,1.207-0.182,1.852
				c-0.348,0.348-0.754,0.416-1.11,0.381c0.034,0.355-0.032,0.762-0.378,1.107s-0.742,0.414-1.103,0.381
				c0.033,0.354-0.033,0.756-0.378,1.1c-0.344,0.344-0.744,0.412-1.1,0.379c0.033,0.355-0.035,0.758-0.38,1.102
				C307.774,199.383,307.438,199.475,307.125,199.475z"/>
		</g>
	</g>
</g>
</svg>
